RTL/dummy.vcd
$date
	Tue Jun 23 20:22:30 2026
$end
$version
	Icarus Verilog
$end
$timescale
	1ps
$end
$scope module Uart_receiver_tb $end
$var wire 1 ! Sample_tick $end
$var wire 1 " load $end
$var wire 1 # done $end
$var wire 8 $ data_out [7:0] $end
$var parameter 32 % DataWidth $end
$var parameter 32 & SamplingWidth $end
$var parameter 32 ' bittime $end
$var reg 1 ( done_latched $end
$var reg 11 ) framed_data [10:0] $end
$var reg 1 * r_clk $end
$var reg 1 + reset $end
$var reg 1 , rx $end
$var reg 11 - temp [10:0] $end
$var integer 32 . fail_cnt [31:0] $end
$var integer 32 / i [31:0] $end
$var integer 32 0 pass_cnt [31:0] $end
$var integer 32 1 q_head [31:0] $end
$var integer 32 2 q_tail [31:0] $end
$scope module DUT $end
$var wire 1 * r_clk $end
$var wire 1 + reset $end
$var wire 1 , rx $end
$var wire 1 3 restart $end
$var wire 1 " load $end
$var wire 1 # done $end
$var wire 8 4 data_out [7:0] $end
$var wire 1 5 Sample_tick $end
$var parameter 32 6 DataWidth $end
$var parameter 32 7 SamplingWidth $end
$scope module R $end
$var wire 8 8 data_out [7:0] $end
$var wire 1 " load $end
$var wire 1 * r_clk $end
$var wire 1 + reset $end
$var wire 1 3 restart $end
$var wire 1 , rx $end
$var wire 1 # done $end
$var wire 1 5 Sample_tick $end
$var parameter 32 9 DataWidth $end
$var parameter 32 : SamplingWidth $end
$var parameter 32 ; correct $end
$var parameter 32 < data $end
$var parameter 32 = error $end
$var parameter 32 > idle $end
$var parameter 32 ? parity $end
$var parameter 32 @ start $end
$var parameter 32 A stop $end
$var reg 4 B count_s [3:0] $end
$var reg 3 C data_bit_count [2:0] $end
$var reg 8 D data_correct [7:0] $end
$var reg 8 E data_temp [7:0] $end
$var reg 1 F load_reg $end
$var reg 1 G p $end
$var reg 3 H present_state [2:0] $end
$var reg 1 I restart_reg $end
$upscope $end
$scope module R_S $end
$var wire 1 * r_clk $end
$var wire 1 + reset $end
$var wire 1 3 restart $end
$var wire 1 5 Sample_tick $end
$var reg 1 5 Sample_tick_reg $end
$var reg 3 J count [2:0] $end
$upscope $end
$upscope $end
$scope task apply_reset $end
$upscope $end
$scope task check_data $end
$var reg 8 K data_received [7:0] $end
$var reg 32 L test_id [31:0] $end
$upscope $end
$scope task check_done $end
$var reg 1 M exp $end
$var reg 512 N msg [511:0] $end
$var reg 32 O test_id [31:0] $end
$upscope $end
$scope task frame_data $end
$var reg 8 P data [7:0] $end
$var reg 11 Q framed_data [10:0] $end
$var reg 1 R p $end
$upscope $end
$scope task frame_data_p $end
$var reg 8 S data [7:0] $end
$var reg 11 T framed_data [10:0] $end
$var reg 1 U p $end
$upscope $end
$scope task frame_data_s $end
$var reg 8 V data [7:0] $end
$var reg 11 W framed_data [10:0] $end
$var reg 1 X p $end
$upscope $end
$scope task push_ref $end
$var reg 8 Y data [7:0] $end
$upscope $end
$scope task send_data $end
$var reg 11 Z framed_data [10:0] $end
$var reg 11 [ temp [10:0] $end
$upscope $end
$scope task wait_N $end
$var integer 32 \ N [31:0] $end
$var integer 32 ] count [31:0] $end
$upscope $end
$upscope $end
$enddefinitions $end
$comment Show the parameter values. $end
$dumpall
b11 A
b0 @
b10 ?
b110 >
b101 =
b1 <
b100 ;
b10000 :
b1000 9
b10000 7
b1000 6
b100010001 '
b10000 &
b1000 %
$end
#0
$dumpvars
bx ]
bx \
bx [
bx Z
bx Y
xX
bx W
bx V
xU
bx T
bx S
xR
bx Q
bx P
bx O
bx N
xM
bx L
bx K
b1 J
0I
b110 H
0G
0F
b0 E
b0 D
b0 C
b0 B
b0 8
05
b0 4
03
b0 2
b0 1
b0 0
b10000000000 /
b0 .
bx -
1,
1+
0*
bx )
0(
b0 $
0#
0"
0!
$end
#2500
1*
#5000
0*
#7500
1*
#10000
0*
#12500
1*
#15000
0*
#17500
1*
#20000
0*
#22500
1*
#25000
0*
#27500
1*
#30000
0*
#32500
1*
#35000
0*
#37500
1*
#40000
0*
#42500
1*
#45000
0*
#47500
b10 J
0+
1*
#50000
0*
#52500
b11 J
1*
#55000
0*
#57500
b100 J
1*
#60000
0*
#62500
1!
15
b1 J
1*
#65000
0*
#67500
0!
05
b10 J
1*
#70000
0*
#72500
b11 J
0,
b11100010010 [
b11000100100 Z
b1 2
b10010 Y
b11000100100 )
b11000100100 Q
1R
b10010 P
1*
#75000
0*
#77500
b100 J
13
1I
b0 H
1*
#80000
0*
#82500
03
0I
b1 J
1*
#85000
0*
#87500
b10 J
1*
#90000
0*
#92500
b11 J
1*
#95000
0*
#97500
b100 J
1*
#100000
0*
#102500
1!
15
b1 J
1*
#105000
0*
#107500
0!
05
b10 J
b1 B
1*
#110000
0*
#112500
b11 J
1*
#115000
0*
#117500
b100 J
1*
#120000
0*
#122500
1!
15
b1 J
1*
#125000
0*
#127500
0!
05
b10 J
b10 B
1*
#130000
0*
#132500
b11 J
1*
#135000
0*
#137500
b100 J
1*
#140000
0*
#142500
1!
15
b1 J
1*
#145000
0*
#147500
0!
05
b10 J
b11 B
1*
#150000
0*
#152500
b11 J
1*
#155000
0*
#157500
b100 J
1*
#160000
0*
#162500
1!
15
b1 J
1*
#165000
0*
#167500
0!
05
b10 J
b100 B
1*
#170000
0*
#172500
b11 J
1*
#175000
0*
#177500
b100 J
1*
#180000
0*
#182500
1!
15
b1 J
1*
#185000
0*
#187500
0!
05
b10 J
b101 B
1*
#190000
0*
#192500
b11 J
1*
#195000
0*
#197500
b100 J
1*
#200000
0*
#202500
1!
15
b1 J
1*
#205000
0*
#207500
0!
05
b10 J
b110 B
1*
#210000
0*
#212500
b11 J
1*
#215000
0*
#217500
b100 J
1*
#220000
0*
#222500
1!
15
b1 J
1*
#225000
0*
#227500
0!
05
b10 J
b111 B
1*
#230000
0*
#232500
b11 J
1*
#235000
0*
#237500
b100 J
1*
#240000
0*
#242500
1!
15
b1 J
1*
#245000
0*
#247500
0!
05
b10 J
b1000 B
1*
#250000
0*
#252500
b11 J
1*
#255000
0*
#257500
b100 J
1*
#260000
0*
#262500
1!
15
b1 J
1*
#265000
0*
#267500
0!
05
b10 J
1G
b1001 B
1*
#270000
0*
#272500
b11 J
1*
#275000
0*
#277500
b100 J
1*
#280000
0*
#282500
1!
15
b1 J
1*
#285000
0*
#287500
0!
05
b10 J
b1010 B
1*
#290000
0*
#292500
b11 J
1*
#295000
0*
#297500
b100 J
1*
#300000
0*
#302500
1!
15
b1 J
1*
#305000
0*
#307500
0!
05
b10 J
b1011 B
1*
#310000
0*
#312500
b11 J
1*
#315000
0*
#317500
b100 J
1*
#320000
0*
#322500
1!
15
b1 J
1*
#325000
0*
#327500
0!
05
b10 J
b1100 B
1*
#330000
0*
#332500
b11 J
1*
#335000
0*
#337500
b100 J
1*
#340000
0*
#342500
1!
15
b1 J
1*
#345000
0*
#347500
0!
05
b10 J
b1101 B
1*
#350000
0*
#352500
b11 J
1*
#355000
0*
#357500
b100 J
1*
#360000
0*
#362500
1!
15
b1 J
1*
#365000
0*
#367500
0!
05
b10 J
b1110 B
1*
#370000
0*
#372500
b11 J
1*
#375000
0*
#377500
b100 J
1*
#380000
0*
#382500
1!
15
b1 J
1*
#385000
0*
#387500
0!
05
b10 J
b1111 B
1*
#390000
0*
#392500
b11 J
1*
b11110001001 [
#395000
0*
#397500
b100 J
1*
#400000
0*
#402500
1!
15
b1 J
1*
#405000
0*
#407500
0!
05
b10 J
b1 H
b0 B
1*
#410000
0*
#412500
b11 J
1*
#415000
0*
#417500
b100 J
1*
#420000
0*
#422500
1!
15
b1 J
1*
#425000
0*
#427500
0!
05
b10 J
b1 B
1*
#430000
0*
#432500
b11 J
1*
#435000
0*
#437500
b100 J
1*
#440000
0*
#442500
1!
15
b1 J
1*
#445000
0*
#447500
0!
05
b10 J
b10 B
1*
#450000
0*
#452500
b11 J
1*
#455000
0*
#457500
b100 J
1*
#460000
0*
#462500
1!
15
b1 J
1*
#465000
0*
#467500
0!
05
b10 J
b11 B
1*
#470000
0*
#472500
b11 J
1*
#475000
0*
#477500
b100 J
1*
#480000
0*
#482500
1!
15
b1 J
1*
#485000
0*
#487500
0!
05
b10 J
b100 B
1*
#490000
0*
#492500
b11 J
1*
#495000
0*
#497500
b100 J
1*
#500000
0*
#502500
1!
15
b1 J
1*
#505000
0*
#507500
0!
05
b10 J
b101 B
1*
#510000
0*
#512500
b11 J
1*
#515000
0*
#517500
b100 J
1*
#520000
0*
#522500
1!
15
b1 J
1*
#525000
0*
#527500
0!
05
b10 J
b110 B
1*
#530000
0*
#532500
b11 J
1*
#535000
0*
#537500
b100 J
1*
#540000
0*
#542500
1!
15
b1 J
1*
#545000
0*
#547500
0!
05
b10 J
b111 B
1*
#550000
0*
#552500
b11 J
1*
#555000
0*
#557500
b100 J
1*
#560000
0*
#562500
1!
15
b1 J
1*
#565000
0*
#567500
0!
05
b10 J
b1000 B
1*
#570000
0*
#572500
b11 J
1*
#575000
0*
#577500
b100 J
1*
#580000
0*
#582500
1!
15
b1 J
1*
#585000
0*
#587500
0!
05
b10 J
b1001 B
1*
#590000
0*
#592500
b11 J
1*
#595000
0*
#597500
b100 J
1*
#600000
0*
#602500
1!
15
b1 J
1*
#605000
0*
#607500
0!
05
b10 J
b1010 B
1*
#610000
0*
#612500
b11 J
1*
#615000
0*
#617500
b100 J
1*
#620000
0*
#622500
1!
15
b1 J
1*
#625000
0*
#627500
0!
05
b10 J
b1011 B
1*
#630000
0*
#632500
b11 J
1*
#635000
0*
#637500
b100 J
1*
#640000
0*
#642500
1!
15
b1 J
1*
#645000
0*
#647500
0!
05
b10 J
b1100 B
1*
#650000
0*
#652500
b11 J
1*
#655000
0*
#657500
b100 J
1*
#660000
0*
#662500
1!
15
b1 J
1*
#665000
0*
#667500
0!
05
b10 J
b1101 B
1*
#670000
0*
#672500
b11 J
1*
#675000
0*
#677500
b100 J
1*
#680000
0*
#682500
1!
15
b1 J
1*
#685000
0*
#687500
0!
05
b10 J
b1110 B
1*
#690000
0*
#692500
b11 J
1*
#695000
0*
#697500
b100 J
1*
#700000
0*
#702500
1!
15
b1 J
1*
#705000
0*
#707500
0!
05
b10 J
b1111 B
1*
#710000
0*
#712500
b11 J
1*
b11111000100 [
1,
#715000
0*
#717500
b100 J
1*
#720000
0*
#722500
1!
15
b1 J
1*
#725000
0*
#727500
0!
05
b10 J
b0 B
b1 C
1*
#730000
0*
#732500
b11 J
1*
#735000
0*
#737500
b100 J
1*
#740000
0*
#742500
1!
15
b1 J
1*
#745000
0*
#747500
0!
05
b10 J
b1 B
1*
#750000
0*
#752500
b11 J
1*
#755000
0*
#757500
b100 J
1*
#760000
0*
#762500
1!
15
b1 J
1*
#765000
0*
#767500
0!
05
b10 J
b10 B
1*
#770000
0*
#772500
b11 J
1*
#775000
0*
#777500
b100 J
1*
#780000
0*
#782500
1!
15
b1 J
1*
#785000
0*
#787500
0!
05
b10 J
b11 B
1*
#790000
0*
#792500
b11 J
1*
#795000
0*
#797500
b100 J
1*
#800000
0*
#802500
1!
15
b1 J
1*
#805000
0*
#807500
0!
05
b10 J
b100 B
1*
#810000
0*
#812500
b11 J
1*
#815000
0*
#817500
b100 J
1*
#820000
0*
#822500
1!
15
b1 J
1*
#825000
0*
#827500
0!
05
b10 J
b101 B
1*
#830000
0*
#832500
b11 J
1*
#835000
0*
#837500
b100 J
1*
#840000
0*
#842500
1!
15
b1 J
1*
#845000
0*
#847500
0!
05
b10 J
b110 B
1*
#850000
0*
#852500
b11 J
1*
#855000
0*
#857500
b100 J
1*
#860000
0*
#862500
1!
15
b1 J
1*
#865000
0*
#867500
0!
05
b10 J
b111 B
1*
#870000
0*
#872500
b11 J
1*
#875000
0*
#877500
b100 J
1*
#880000
0*
#882500
1!
15
b1 J
1*
#885000
0*
#887500
0!
05
b10 J
b1000 B
1*
#890000
0*
#892500
b11 J
1*
#895000
0*
#897500
b100 J
1*
#900000
0*
#902500
1!
15
b1 J
1*
#905000
0*
#907500
0!
05
b10 J
b10 E
b1001 B
1*
#910000
0*
#912500
b11 J
1*
#915000
0*
#917500
b100 J
1*
#920000
0*
#922500
1!
15
b1 J
1*
#925000
0*
#927500
0!
05
b10 J
b1010 B
1*
#930000
0*
#932500
b11 J
1*
#935000
0*
#937500
b100 J
1*
#940000
0*
#942500
1!
15
b1 J
1*
#945000
0*
#947500
0!
05
b10 J
b1011 B
1*
#950000
0*
#952500
b11 J
1*
#955000
0*
#957500
b100 J
1*
#960000
0*
#962500
1!
15
b1 J
1*
#965000
0*
#967500
0!
05
b10 J
b1100 B
1*
#970000
0*
#972500
b11 J
1*
#975000
0*
#977500
b100 J
1*
#980000
0*
#982500
1!
15
b1 J
1*
#985000
0*
#987500
0!
05
b10 J
b1101 B
1*
#990000
0*
#992500
b11 J
1*
#995000
0*
#997500
b100 J
1*
#1000000
0*
#1002500
1!
15
b1 J
1*
#1005000
0*
#1007500
0!
05
b10 J
b1110 B
1*
#1010000
0*
#1012500
b11 J
1*
#1015000
0*
#1017500
b100 J
1*
#1020000
0*
#1022500
1!
15
b1 J
1*
#1025000
0*
#1027500
0!
05
b10 J
b1111 B
1*
#1030000
0*
#1032500
b11 J
1*
b11111100010 [
0,
#1035000
0*
#1037500
b100 J
1*
#1040000
0*
#1042500
1!
15
b1 J
1*
#1045000
0*
#1047500
0!
05
b10 J
b0 B
b10 C
1*
#1050000
0*
#1052500
b11 J
1*
#1055000
0*
#1057500
b100 J
1*
#1060000
0*
#1062500
1!
15
b1 J
1*
#1065000
0*
#1067500
0!
05
b10 J
b1 B
1*
#1070000
0*
#1072500
b11 J
1*
#1075000
0*
#1077500
b100 J
1*
#1080000
0*
#1082500
1!
15
b1 J
1*
#1085000
0*
#1087500
0!
05
b10 J
b10 B
1*
#1090000
0*
#1092500
b11 J
1*
#1095000
0*
#1097500
b100 J
1*
#1100000
0*
#1102500
1!
15
b1 J
1*
#1105000
0*
#1107500
0!
05
b10 J
b11 B
1*
#1110000
0*
#1112500
b11 J
1*
#1115000
0*
#1117500
b100 J
1*
#1120000
0*
#1122500
1!
15
b1 J
1*
#1125000
0*
#1127500
0!
05
b10 J
b100 B
1*
#1130000
0*
#1132500
b11 J
1*
#1135000
0*
#1137500
b100 J
1*
#1140000
0*
#1142500
1!
15
b1 J
1*
#1145000
0*
#1147500
0!
05
b10 J
b101 B
1*
#1150000
0*
#1152500
b11 J
1*
#1155000
0*
#1157500
b100 J
1*
#1160000
0*
#1162500
1!
15
b1 J
1*
#1165000
0*
#1167500
0!
05
b10 J
b110 B
1*
#1170000
0*
#1172500
b11 J
1*
#1175000
0*
#1177500
b100 J
1*
#1180000
0*
#1182500
1!
15
b1 J
1*
#1185000
0*
#1187500
0!
05
b10 J
b111 B
1*
#1190000
0*
#1192500
b11 J
1*
#1195000
0*
#1197500
b100 J
1*
#1200000
0*
#1202500
1!
15
b1 J
1*
#1205000
0*
#1207500
0!
05
b10 J
b1000 B
1*
#1210000
0*
#1212500
b11 J
1*
#1215000
0*
#1217500
b100 J
1*
#1220000
0*
#1222500
1!
15
b1 J
1*
#1225000
0*
#1227500
0!
05
b10 J
b1001 B
1*
#1230000
0*
#1232500
b11 J
1*
#1235000
0*
#1237500
b100 J
1*
#1240000
0*
#1242500
1!
15
b1 J
1*
#1245000
0*
#1247500
0!
05
b10 J
b1010 B
1*
#1250000
0*
#1252500
b11 J
1*
#1255000
0*
#1257500
b100 J
1*
#1260000
0*
#1262500
1!
15
b1 J
1*
#1265000
0*
#1267500
0!
05
b10 J
b1011 B
1*
#1270000
0*
#1272500
b11 J
1*
#1275000
0*
#1277500
b100 J
1*
#1280000
0*
#1282500
1!
15
b1 J
1*
#1285000
0*
#1287500
0!
05
b10 J
b1100 B
1*
#1290000
0*
#1292500
b11 J
1*
#1295000
0*
#1297500
b100 J
1*
#1300000
0*
#1302500
1!
15
b1 J
1*
#1305000
0*
#1307500
0!
05
b10 J
b1101 B
1*
#1310000
0*
#1312500
b11 J
1*
#1315000
0*
#1317500
b100 J
1*
#1320000
0*
#1322500
1!
15
b1 J
1*
#1325000
0*
#1327500
0!
05
b10 J
b1110 B
1*
#1330000
0*
#1332500
b11 J
1*
#1335000
0*
#1337500
b100 J
1*
#1340000
0*
#1342500
1!
15
b1 J
1*
#1345000
0*
#1347500
0!
05
b10 J
b1111 B
1*
#1350000
0*
#1352500
b11 J
1*
b11111110001 [
#1355000
0*
#1357500
b100 J
1*
#1360000
0*
#1362500
1!
15
b1 J
1*
#1365000
0*
#1367500
0!
05
b10 J
b0 B
b11 C
1*
#1370000
0*
#1372500
b11 J
1*
#1375000
0*
#1377500
b100 J
1*
#1380000
0*
#1382500
1!
15
b1 J
1*
#1385000
0*
#1387500
0!
05
b10 J
b1 B
1*
#1390000
0*
#1392500
b11 J
1*
#1395000
0*
#1397500
b100 J
1*
#1400000
0*
#1402500
1!
15
b1 J
1*
#1405000
0*
#1407500
0!
05
b10 J
b10 B
1*
#1410000
0*
#1412500
b11 J
1*
#1415000
0*
#1417500
b100 J
1*
#1420000
0*
#1422500
1!
15
b1 J
1*
#1425000
0*
#1427500
0!
05
b10 J
b11 B
1*
#1430000
0*
#1432500
b11 J
1*
#1435000
0*
#1437500
b100 J
1*
#1440000
0*
#1442500
1!
15
b1 J
1*
#1445000
0*
#1447500
0!
05
b10 J
b100 B
1*
#1450000
0*
#1452500
b11 J
1*
#1455000
0*
#1457500
b100 J
1*
#1460000
0*
#1462500
1!
15
b1 J
1*
#1465000
0*
#1467500
0!
05
b10 J
b101 B
1*
#1470000
0*
#1472500
b11 J
1*
#1475000
0*
#1477500
b100 J
1*
#1480000
0*
#1482500
1!
15
b1 J
1*
#1485000
0*
#1487500
0!
05
b10 J
b110 B
1*
#1490000
0*
#1492500
b11 J
1*
#1495000
0*
#1497500
b100 J
1*
#1500000
0*
#1502500
1!
15
b1 J
1*
#1505000
0*
#1507500
0!
05
b10 J
b111 B
1*
#1510000
0*
#1512500
b11 J
1*
#1515000
0*
#1517500
b100 J
1*
#1520000
0*
#1522500
1!
15
b1 J
1*
#1525000
0*
#1527500
0!
05
b10 J
b1000 B
1*
#1530000
0*
#1532500
b11 J
1*
#1535000
0*
#1537500
b100 J
1*
#1540000
0*
#1542500
1!
15
b1 J
1*
#1545000
0*
#1547500
0!
05
b10 J
b1001 B
1*
#1550000
0*
#1552500
b11 J
1*
#1555000
0*
#1557500
b100 J
1*
#1560000
0*
#1562500
1!
15
b1 J
1*
#1565000
0*
#1567500
0!
05
b10 J
b1010 B
1*
#1570000
0*
#1572500
b11 J
1*
#1575000
0*
#1577500
b100 J
1*
#1580000
0*
#1582500
1!
15
b1 J
1*
#1585000
0*
#1587500
0!
05
b10 J
b1011 B
1*
#1590000
0*
#1592500
b11 J
1*
#1595000
0*
#1597500
b100 J
1*
#1600000
0*
#1602500
1!
15
b1 J
1*
#1605000
0*
#1607500
0!
05
b10 J
b1100 B
1*
#1610000
0*
#1612500
b11 J
1*
#1615000
0*
#1617500
b100 J
1*
#1620000
0*
#1622500
1!
15
b1 J
1*
#1625000
0*
#1627500
0!
05
b10 J
b1101 B
1*
#1630000
0*
#1632500
b11 J
1*
#1635000
0*
#1637500
b100 J
1*
#1640000
0*
#1642500
1!
15
b1 J
1*
#1645000
0*
#1647500
0!
05
b10 J
b1110 B
1*
#1650000
0*
#1652500
b11 J
1*
#1655000
0*
#1657500
b100 J
1*
#1660000
0*
#1662500
1!
15
b1 J
1*
#1665000
0*
#1667500
0!
05
b10 J
b1111 B
1*
#1670000
0*
#1672500
b11 J
1*
b11111111000 [
1,
#1675000
0*
#1677500
b100 J
1*
#1680000
0*
#1682500
1!
15
b1 J
1*
#1685000
0*
#1687500
0!
05
b10 J
b0 B
b100 C
1*
#1690000
0*
#1692500
b11 J
1*
#1695000
0*
#1697500
b100 J
1*
#1700000
0*
#1702500
1!
15
b1 J
1*
#1705000
0*
#1707500
0!
05
b10 J
b1 B
1*
#1710000
0*
#1712500
b11 J
1*
#1715000
0*
#1717500
b100 J
1*
#1720000
0*
#1722500
1!
15
b1 J
1*
#1725000
0*
#1727500
0!
05
b10 J
b10 B
1*
#1730000
0*
#1732500
b11 J
1*
#1735000
0*
#1737500
b100 J
1*
#1740000
0*
#1742500
1!
15
b1 J
1*
#1745000
0*
#1747500
0!
05
b10 J
b11 B
1*
#1750000
0*
#1752500
b11 J
1*
#1755000
0*
#1757500
b100 J
1*
#1760000
0*
#1762500
1!
15
b1 J
1*
#1765000
0*
#1767500
0!
05
b10 J
b100 B
1*
#1770000
0*
#1772500
b11 J
1*
#1775000
0*
#1777500
b100 J
1*
#1780000
0*
#1782500
1!
15
b1 J
1*
#1785000
0*
#1787500
0!
05
b10 J
b101 B
1*
#1790000
0*
#1792500
b11 J
1*
#1795000
0*
#1797500
b100 J
1*
#1800000
0*
#1802500
1!
15
b1 J
1*
#1805000
0*
#1807500
0!
05
b10 J
b110 B
1*
#1810000
0*
#1812500
b11 J
1*
#1815000
0*
#1817500
b100 J
1*
#1820000
0*
#1822500
1!
15
b1 J
1*
#1825000
0*
#1827500
0!
05
b10 J
b111 B
1*
#1830000
0*
#1832500
b11 J
1*
#1835000
0*
#1837500
b100 J
1*
#1840000
0*
#1842500
1!
15
b1 J
1*
#1845000
0*
#1847500
0!
05
b10 J
b1000 B
1*
#1850000
0*
#1852500
b11 J
1*
#1855000
0*
#1857500
b100 J
1*
#1860000
0*
#1862500
1!
15
b1 J
1*
#1865000
0*
#1867500
0!
05
b10 J
b10010 E
b1001 B
1*
#1870000
0*
#1872500
b11 J
1*
#1875000
0*
#1877500
b100 J
1*
#1880000
0*
#1882500
1!
15
b1 J
1*
#1885000
0*
#1887500
0!
05
b10 J
b1010 B
1*
#1890000
0*
#1892500
b11 J
1*
#1895000
0*
#1897500
b100 J
1*
#1900000
0*
#1902500
1!
15
b1 J
1*
#1905000
0*
#1907500
0!
05
b10 J
b1011 B
1*
#1910000
0*
#1912500
b11 J
1*
#1915000
0*
#1917500
b100 J
1*
#1920000
0*
#1922500
1!
15
b1 J
1*
#1925000
0*
#1927500
0!
05
b10 J
b1100 B
1*
#1930000
0*
#1932500
b11 J
1*
#1935000
0*
#1937500
b100 J
1*
#1940000
0*
#1942500
1!
15
b1 J
1*
#1945000
0*
#1947500
0!
05
b10 J
b1101 B
1*
#1950000
0*
#1952500
b11 J
1*
#1955000
0*
#1957500
b100 J
1*
#1960000
0*
#1962500
1!
15
b1 J
1*
#1965000
0*
#1967500
0!
05
b10 J
b1110 B
1*
#1970000
0*
#1972500
b11 J
1*
#1975000
0*
#1977500
b100 J
1*
#1980000
0*
#1982500
1!
15
b1 J
1*
#1985000
0*
#1987500
0!
05
b10 J
b1111 B
1*
#1990000
0*
#1992500
b11 J
1*
b11111111100 [
0,
#1995000
0*
#1997500
b100 J
1*
#2000000
0*
#2002500
1!
15
b1 J
1*
#2005000
0*
#2007500
0!
05
b10 J
b0 B
b101 C
1*
#2010000
0*
#2012500
b11 J
1*
#2015000
0*
#2017500
b100 J
1*
#2020000
0*
#2022500
1!
15
b1 J
1*
#2025000
0*
#2027500
0!
05
b10 J
b1 B
1*
#2030000
0*
#2032500
b11 J
1*
#2035000
0*
#2037500
b100 J
1*
#2040000
0*
#2042500
1!
15
b1 J
1*
#2045000
0*
#2047500
0!
05
b10 J
b10 B
1*
#2050000
0*
#2052500
b11 J
1*
#2055000
0*
#2057500
b100 J
1*
#2060000
0*
#2062500
1!
15
b1 J
1*
#2065000
0*
#2067500
0!
05
b10 J
b11 B
1*
#2070000
0*
#2072500
b11 J
1*
#2075000
0*
#2077500
b100 J
1*
#2080000
0*
#2082500
1!
15
b1 J
1*
#2085000
0*
#2087500
0!
05
b10 J
b100 B
1*
#2090000
0*
#2092500
b11 J
1*
#2095000
0*
#2097500
b100 J
1*
#2100000
0*
#2102500
1!
15
b1 J
1*
#2105000
0*
#2107500
0!
05
b10 J
b101 B
1*
#2110000
0*
#2112500
b11 J
1*
#2115000
0*
#2117500
b100 J
1*
#2120000
0*
#2122500
1!
15
b1 J
1*
#2125000
0*
#2127500
0!
05
b10 J
b110 B
1*
#2130000
0*
#2132500
b11 J
1*
#2135000
0*
#2137500
b100 J
1*
#2140000
0*
#2142500
1!
15
b1 J
1*
#2145000
0*
#2147500
0!
05
b10 J
b111 B
1*
#2150000
0*
#2152500
b11 J
1*
#2155000
0*
#2157500
b100 J
1*
#2160000
0*
#2162500
1!
15
b1 J
1*
#2165000
0*
#2167500
0!
05
b10 J
b1000 B
1*
#2170000
0*
#2172500
b11 J
1*
#2175000
0*
#2177500
b100 J
1*
#2180000
0*
#2182500
1!
15
b1 J
1*
#2185000
0*
#2187500
0!
05
b10 J
b1001 B
1*
#2190000
0*
#2192500
b11 J
1*
#2195000
0*
#2197500
b100 J
1*
#2200000
0*
#2202500
1!
15
b1 J
1*
#2205000
0*
#2207500
0!
05
b10 J
b1010 B
1*
#2210000
0*
#2212500
b11 J
1*
#2215000
0*
#2217500
b100 J
1*
#2220000
0*
#2222500
1!
15
b1 J
1*
#2225000
0*
#2227500
0!
05
b10 J
b1011 B
1*
#2230000
0*
#2232500
b11 J
1*
#2235000
0*
#2237500
b100 J
1*
#2240000
0*
#2242500
1!
15
b1 J
1*
#2245000
0*
#2247500
0!
05
b10 J
b1100 B
1*
#2250000
0*
#2252500
b11 J
1*
#2255000
0*
#2257500
b100 J
1*
#2260000
0*
#2262500
1!
15
b1 J
1*
#2265000
0*
#2267500
0!
05
b10 J
b1101 B
1*
#2270000
0*
#2272500
b11 J
1*
#2275000
0*
#2277500
b100 J
1*
#2280000
0*
#2282500
1!
15
b1 J
1*
#2285000
0*
#2287500
0!
05
b10 J
b1110 B
1*
#2290000
0*
#2292500
b11 J
1*
#2295000
0*
#2297500
b100 J
1*
#2300000
0*
#2302500
1!
15
b1 J
1*
#2305000
0*
#2307500
0!
05
b10 J
b1111 B
1*
#2310000
0*
#2312500
b11 J
1*
b11111111110 [
#2315000
0*
#2317500
b100 J
1*
#2320000
0*
#2322500
1!
15
b1 J
1*
#2325000
0*
#2327500
0!
05
b10 J
b0 B
b110 C
1*
#2330000
0*
#2332500
b11 J
1*
#2335000
0*
#2337500
b100 J
1*
#2340000
0*
#2342500
1!
15
b1 J
1*
#2345000
0*
#2347500
0!
05
b10 J
b1 B
1*
#2350000
0*
#2352500
b11 J
1*
#2355000
0*
#2357500
b100 J
1*
#2360000
0*
#2362500
1!
15
b1 J
1*
#2365000
0*
#2367500
0!
05
b10 J
b10 B
1*
#2370000
0*
#2372500
b11 J
1*
#2375000
0*
#2377500
b100 J
1*
#2380000
0*
#2382500
1!
15
b1 J
1*
#2385000
0*
#2387500
0!
05
b10 J
b11 B
1*
#2390000
0*
#2392500
b11 J
1*
#2395000
0*
#2397500
b100 J
1*
#2400000
0*
#2402500
1!
15
b1 J
1*
#2405000
0*
#2407500
0!
05
b10 J
b100 B
1*
#2410000
0*
#2412500
b11 J
1*
#2415000
0*
#2417500
b100 J
1*
#2420000
0*
#2422500
1!
15
b1 J
1*
#2425000
0*
#2427500
0!
05
b10 J
b101 B
1*
#2430000
0*
#2432500
b11 J
1*
#2435000
0*
#2437500
b100 J
1*
#2440000
0*
#2442500
1!
15
b1 J
1*
#2445000
0*
#2447500
0!
05
b10 J
b110 B
1*
#2450000
0*
#2452500
b11 J
1*
#2455000
0*
#2457500
b100 J
1*
#2460000
0*
#2462500
1!
15
b1 J
1*
#2465000
0*
#2467500
0!
05
b10 J
b111 B
1*
#2470000
0*
#2472500
b11 J
1*
#2475000
0*
#2477500
b100 J
1*
#2480000
0*
#2482500
1!
15
b1 J
1*
#2485000
0*
#2487500
0!
05
b10 J
b1000 B
1*
#2490000
0*
#2492500
b11 J
1*
#2495000
0*
#2497500
b100 J
1*
#2500000
0*
#2502500
1!
15
b1 J
1*
#2505000
0*
#2507500
0!
05
b10 J
b1001 B
1*
#2510000
0*
#2512500
b11 J
1*
#2515000
0*
#2517500
b100 J
1*
#2520000
0*
#2522500
1!
15
b1 J
1*
#2525000
0*
#2527500
0!
05
b10 J
b1010 B
1*
#2530000
0*
#2532500
b11 J
1*
#2535000
0*
#2537500
b100 J
1*
#2540000
0*
#2542500
1!
15
b1 J
1*
#2545000
0*
#2547500
0!
05
b10 J
b1011 B
1*
#2550000
0*
#2552500
b11 J
1*
#2555000
0*
#2557500
b100 J
1*
#2560000
0*
#2562500
1!
15
b1 J
1*
#2565000
0*
#2567500
0!
05
b10 J
b1100 B
1*
#2570000
0*
#2572500
b11 J
1*
#2575000
0*
#2577500
b100 J
1*
#2580000
0*
#2582500
1!
15
b1 J
1*
#2585000
0*
#2587500
0!
05
b10 J
b1101 B
1*
#2590000
0*
#2592500
b11 J
1*
#2595000
0*
#2597500
b100 J
1*
#2600000
0*
#2602500
1!
15
b1 J
1*
#2605000
0*
#2607500
0!
05
b10 J
b1110 B
1*
#2610000
0*
#2612500
b11 J
1*
#2615000
0*
#2617500
b100 J
1*
#2620000
0*
#2622500
1!
15
b1 J
1*
#2625000
0*
#2627500
0!
05
b10 J
b1111 B
1*
#2630000
0*
#2632500
b11 J
1*
b11111111111 [
#2635000
0*
#2637500
b100 J
1*
#2640000
0*
#2642500
1!
15
b1 J
1*
#2645000
0*
#2647500
0!
05
b10 J
b0 B
b111 C
1*
#2650000
0*
#2652500
b11 J
1*
#2655000
0*
#2657500
b100 J
1*
#2660000
0*
#2662500
1!
15
b1 J
1*
#2665000
0*
#2667500
0!
05
b10 J
b1 B
1*
#2670000
0*
#2672500
b11 J
1*
#2675000
0*
#2677500
b100 J
1*
#2680000
0*
#2682500
1!
15
b1 J
1*
#2685000
0*
#2687500
0!
05
b10 J
b10 B
1*
#2690000
0*
