RTL/Uart_transmitter.vcd
$date
	Wed Jun 24 17:38:43 2026
$end
$version
	Icarus Verilog
$end
$timescale
	1ps
$end
$scope module UART_Protocol_tb $end
$var wire 1 ! Sample_tick $end
$var wire 1 " baud_tick $end
$var wire 1 # load_out $end
$var wire 1 $ done $end
$var wire 8 % data_out [7:0] $end
$var wire 1 & busy $end
$var wire 1 ' Tx $end
$var parameter 32 ( DataWidth $end
$var parameter 32 ) SamplingWidth $end
$var parameter 32 * bittime $end
$var reg 8 + data_in [7:0] $end
$var reg 1 , done_latched $end
$var reg 11 - framed_data [10:0] $end
$var reg 1 . load_in $end
$var reg 1 / r_clk $end
$var reg 1 0 reset $end
$var reg 1 1 rx $end
$var reg 1 2 send $end
$var reg 1 3 t_clk $end
$var reg 11 4 temp [10:0] $end
$var integer 32 5 fail_cnt [31:0] $end
$var integer 32 6 fail_cnt_T [31:0] $end
$var integer 32 7 i [31:0] $end
$var integer 32 8 pass_cnt [31:0] $end
$var integer 32 9 pass_cnt_T [31:0] $end
$var integer 32 : q_head [31:0] $end
$var integer 32 ; q_tail [31:0] $end
$scope module UART_DUT $end
$var wire 8 < data_in [7:0] $end
$var wire 1 . load_in $end
$var wire 1 / r_clk $end
$var wire 1 0 reset $end
$var wire 1 1 rx $end
$var wire 1 2 send $end
$var wire 1 3 t_clk $end
$var wire 1 ' tx $end
$var wire 1 # load_out $end
$var wire 1 $ done $end
$var wire 8 = data_out [7:0] $end
$var wire 1 & busy $end
$var wire 1 > Tx $end
$var parameter 32 ? DataWidth $end
$var parameter 32 @ SamplingWidth $end
$scope module Receiver $end
$var wire 1 / r_clk $end
$var wire 1 0 reset $end
$var wire 1 1 rx $end
$var wire 1 A restart $end
$var wire 1 # load $end
$var wire 1 $ done $end
$var wire 8 B data_out [7:0] $end
$var wire 1 C Sample_tick $end
$var parameter 32 D DataWidth $end
$var parameter 32 E SamplingWidth $end
$scope module R $end
$var wire 8 F data_out [7:0] $end
$var wire 1 # load $end
$var wire 1 / r_clk $end
$var wire 1 0 reset $end
$var wire 1 A restart $end
$var wire 1 1 rx $end
$var wire 1 $ done $end
$var wire 1 C Sample_tick $end
$var parameter 32 G DataWidth $end
$var parameter 32 H SamplingWidth $end
$var parameter 32 I correct $end
$var parameter 32 J data $end
$var parameter 32 K error $end
$var parameter 32 L idle $end
$var parameter 32 M parity $end
$var parameter 32 N start $end
$var parameter 32 O stop $end
$var reg 4 P count_s [3:0] $end
$var reg 3 Q data_bit_count [2:0] $end
$var reg 8 R data_correct [7:0] $end
$var reg 8 S data_temp [7:0] $end
$var reg 1 T load_reg $end
$var reg 1 U p $end
$var reg 3 V present_state [2:0] $end
$var reg 1 W restart_reg $end
$upscope $end
$scope module R_S $end
$var wire 1 / r_clk $end
$var wire 1 0 reset $end
$var wire 1 A restart $end
$var wire 1 C Sample_tick $end
$var reg 1 C Sample_tick_reg $end
$var reg 3 X count [2:0] $end
$upscope $end
$upscope $end
$scope module Transmitter $end
$var wire 8 Y data_in [7:0] $end
$var wire 1 . load $end
$var wire 1 0 reset $end
$var wire 1 2 send $end
$var wire 1 3 t_clk $end
$var wire 11 Z packet [10:0] $end
$var wire 1 & busy $end
$var wire 1 [ baud_tick $end
$var wire 1 > Tx $end
$var parameter 32 \ DataWidth $end
$scope module B_T $end
$var wire 1 0 reset $end
$var wire 1 3 t_clk $end
$var wire 1 [ baud_tick $end
$var reg 1 [ baud_tick_reg $end
$var reg 5 ] count [4:0] $end
$upscope $end
$scope module P_T $end
$var wire 8 ^ data_in [7:0] $end
$var wire 1 _ p $end
$var wire 11 ` packet [10:0] $end
$var parameter 32 a DataWidth $end
$upscope $end
$scope module T $end
$var wire 1 > Tx $end
$var wire 1 [ baud_tick $end
$var wire 1 & busy $end
$var wire 1 . load $end
$var wire 11 b packet [10:0] $end
$var wire 1 0 reset $end
$var wire 1 2 send $end
$var wire 1 3 t_clk $end
$var parameter 32 c DataWidth $end
$var reg 4 d b [3:0] $end
$var reg 11 e packet_load_ready [10:0] $end
$var reg 11 f packet_temp [10:0] $end
$var reg 1 g transmitting $end
$var reg 1 h tx $end
$upscope $end
$upscope $end
$scope module Tx_synchronisation $end
$var wire 1 / clk $end
$var wire 1 > in $end
$var wire 1 0 reset $end
$var wire 1 ' sync $end
$var wire 1 i q $end
$scope module stage1 $end
$var wire 1 / clk $end
$var wire 1 > d $end
$var wire 1 i q $end
$var wire 1 0 reset $end
$var reg 1 j Q $end
$upscope $end
$scope module stage2 $end
$var wire 1 / clk $end
$var wire 1 i d $end
$var wire 1 ' q $end
$var wire 1 0 reset $end
$var reg 1 k Q $end
$upscope $end
$upscope $end
$upscope $end
$scope task apply_reset $end
$upscope $end
$scope task apply_reset_T $end
$upscope $end
$scope task check_data $end
$var reg 8 l data_received [7:0] $end
$var reg 32 m test_id [31:0] $end
$upscope $end
$scope task check_done $end
$var reg 1 n exp $end
$var reg 512 o msg [511:0] $end
$var reg 32 p test_id [31:0] $end
$upscope $end
$scope task check_flag_T $end
$var reg 1 q actual $end
$var reg 1 r exp $end
$upscope $end
$scope task frame_data $end
$var reg 8 s data [7:0] $end
$var reg 11 t framed_data [10:0] $end
$var reg 1 u p $end
$upscope $end
$scope task frame_data_p $end
$var reg 8 v data [7:0] $end
$var reg 11 w framed_data [10:0] $end
$var reg 1 x p $end
$upscope $end
$scope task frame_data_s $end
$var reg 8 y data [7:0] $end
$var reg 11 z framed_data [10:0] $end
$var reg 1 { p $end
$upscope $end
$scope task push_ref $end
$var reg 8 | data [7:0] $end
$upscope $end
$scope task send_data $end
$var reg 11 } framed_data [10:0] $end
$var reg 11 ~ temp [10:0] $end
$upscope $end
$scope task send_data_T $end
$var reg 8 !" data [7:0] $end
$upscope $end
$scope task send_data_s_T $end
$var reg 8 "" data [7:0] $end
$upscope $end
$scope task wait_N $end
$var integer 32 #" N [31:0] $end
$var integer 32 $" count [31:0] $end
$upscope $end
$scope task wait_N_baud_T $end
$var integer 32 %" N [31:0] $end
$var integer 32 &" count [31:0] $end
$upscope $end
$upscope $end
$enddefinitions $end
$comment Show the parameter values. $end
$dumpall
b1000 c
b1000 a
b1000 \
b11 O
b0 N
b10 M
b110 L
b101 K
b1 J
b100 I
b10000 H
b1000 G
b10000 E
b1000 D
b10000 @
b1000 ?
b100000100 *
b10000 )
b1000 (
$end
#0
$dumpvars
bx &"
bx %"
bx $"
bx #"
bx ""
bx !"
bx ~
bx }
bx |
x{
bx z
bx y
xx
bx w
bx v
xu
bx t
bx s
xr
xq
bx p
bx o
xn
bx m
bx l
0k
0j
0i
1h
0g
b11111111111 f
b11111111111 e
b0 d
b1xxxxxxxxx0 b
b1xxxxxxxxx0 `
x_
bx ^
b1 ]
0[
b1xxxxxxxxx0 Z
bx Y
b1 X
0W
b110 V
0U
0T
b0 S
b0 R
b0 Q
b0 P
b0 F
0C
b0 B
0A
1>
b0 =
bx <
b0 ;
b0 :
b0 9
b0 8
b10000000000 7
b0 6
b0 5
bx 4
03
x2
x1
10
0/
x.
bx -
0,
bx +
0'
x&
b0 %
0$
0#
0"
0!
$end
#2500
1/
#5000
0/
#7500
1/
#8000
13
#10000
0/
#12500
1/
#15000
0/
#16000
03
#17500
1/
#20000
0/
#22500
1/
#24000
13
#25000
0/
#27500
1/
#30000
0/
#32000
03
#32500
1/
#35000
0/
#37500
1/
#40000
0/
13
#42500
1/
#45000
0/
#47500
1/
#48000
03
#50000
0/
#52500
1/
#55000
0/
#56000
13
#57500
1/
#60000
0/
#62500
1/
#64000
03
#65000
0/
#67500
1/
#70000
0/
#72000
13
#72500
1/
#75000
0/
#77500
1/
#80000
0/
03
#82500
1/
#85000
0/
#87500
1/
#88000
13
#90000
0/
#92500
1/
#95000
0/
#96000
03
#97500
1/
#100000
0/
#102500
1/
#104000
13
#105000
0/
#107500
1/
#110000
0/
#112000
03
#112500
1/
#115000
0/
#117500
1/
#120000
0/
13
#122500
1/
#125000
0/
#127500
1/
#128000
03
#130000
0/
#132500
1/
#135000
0/
#136000
13
#137500
1/
#140000
0/
#142500
1/
#144000
03
#145000
0/
#147500
1/
#150000
0/
#152000
13
#152500
1/
#155000
0/
#157500
1/
#160000
0/
03
#162500
1/
#165000
0/
#167500
1/
#168000
13
#170000
0/
#172500
1/
#175000
0/
#176000
03
#177500
1/
#180000
0/
#182500
1/
#184000
13
#185000
0/
#187500
1/
#190000
0/
#192000
03
#192500
1/
#195000
0/
#197500
1/
#200000
0/
13
#202500
1/
#205000
0/
#207500
1/
#208000
03
#210000
0/
#212500
1/
#215000
0/
#216000
13
#217500
1/
#220000
0/
#222500
1/
#224000
03
#225000
0/
#227500
1/
#230000
0/
#232000
13
#232500
1/
#235000
0/
#237500
1/
#240000
0/
03
#242500
1/
#245000
0/
#247500
1/
#248000
13
#250000
0/
#252500
1/
#255000
0/
#256000
03
#257500
1/
#260000
0/
#262500
1/
#264000
13
#265000
0/
#267500
1/
#270000
0/
#272000
03
#272500
1/
#275000
0/
#277500
1/
#280000
0/
13
#282500
1/
#285000
0/
#287500
1/
#288000
03
#290000
0/
#292500
1/
#295000
0/
#296000
13
#297500
1/
#300000
0/
#302500
1/
#304000
03
#305000
0/
#307500
1/
#310000
0/
#312000
13
#312500
1/
#315000
0/
#317500
1/
#320000
0/
03
#322500
1/
#325000
0/
#327500
1/
#328000
13
#330000
0/
#332500
1/
#335000
0/
#336000
03
#337500
1/
#340000
0/
#342500
1/
#344000
13
#345000
0/
#347500
1/
#350000
0/
#352000
03
#352500
1/
#355000
0/
#357500
1/
#360000
0/
13
#362500
1/
#365000
0/
#367500
1/
#368000
03
#370000
0/
#372500
1/
#375000
0/
#376000
13
#377500
1/
#380000
0/
#382500
1/
#384000
03
#385000
0/
#387500
1/
#390000
0/
#392000
13
#392500
1/
#395000
0/
#397500
1/
#400000
0/
03
#402500
1/
#405000
0/
#407500
1/
#408000
13
#410000
0/
#412500
1/
#415000
0/
#416000
03
#417500
1/
#420000
0/
#422500
1/
#424000
13
#425000
0/
#427500
1/
#430000
0/
#432000
03
#432500
1/
#435000
0/
#437500
1/
#440000
0/
13
#442500
1/
#445000
0/
#447500
1/
#448000
03
#450000
0/
#452500
1/
#455000
0/
#456000
13
#457500
1/
#460000
0/
#462500
1/
#464000
03
#465000
0/
#467500
1/
#470000
0/
#472000
13
#472500
1/
#475000
0/
#477500
1/
#480000
0/
03
#482500
1/
#485000
0/
#487500
1/
#488000
13
#490000
0/
#492500
1/
#495000
0/
#496000
03
#497500
1/
#500000
0/
#502500
1/
#504000
13
#505000
0/
#507500
1/
#510000
0/
#512000
03
#512500
1/
#515000
0/
#517500
1/
#520000
0/
13
#522500
1/
#525000
0/
#527500
1/
#528000
03
#530000
0/
#532500
1/
#535000
0/
#536000
13
#537500
1/
#540000
0/
#542500
1/
#544000
03
#545000
0/
#547500
1/
#550000
0/
#552000
13
#552500
1/
#555000
0/
#557500
1/
#560000
0/
03
#562500
1/
#565000
0/
#567500
1/
#568000
13
#570000
0/
#572500
1/
#575000
0/
#576000
03
#577500
1/
#580000
0/
#582500
1/
#584000
13
#585000
0/
#587500
1/
#590000
0/
#592000
03
#592500
1/
#595000
0/
#597500
1/
#600000
0/
13
#602500
1/
#605000
0/
#607500
1/
#608000
03
#610000
0/
#612500
1/
#615000
0/
#616000
13
#617500
1/
#620000
0/
#622500
1/
#624000
03
#625000
0/
#627500
1/
#630000
0/
#632000
13
#632500
1/
#635000
0/
#637500
1/
#640000
0/
03
#642500
1/
#645000
0/
#647500
1/
#648000
13
#650000
0/
#652500
1/
#655000
0/
#656000
03
#657500
1/
#660000
0/
#662500
1/
#664000
13
#665000
0/
#667500
1/
#670000
0/
#672000
03
#672500
1/
#675000
0/
#677500
1/
#680000
0/
13
#682500
1/
#685000
0/
#687500
1/
#688000
03
#690000
0/
#692500
1/
#695000
0/
#696000
13
#697500
1/
#700000
0/
#702500
1/
#704000
03
#705000
0/
#707500
1/
#710000
0/
#712000
13
#712500
1/
#715000
0/
#717500
1/
#720000
0/
03
#722500
1/
#725000
0/
#727500
1/
#728000
13
#730000
0/
#732500
1/
#735000
0/
#736000
03
#737500
1/
#740000
0/
#742500
1/
#744000
13
#745000
0/
#747500
1/
#750000
0/
#752000
03
#752500
1/
#755000
0/
#757500
1/
#760000
0/
13
#762500
1/
#765000
0/
#767500
1/
#768000
03
#770000
0/
#772500
1/
#775000
0/
#776000
13
#777500
1/
#780000
0/
#782500
1/
#784000
03
#785000
0/
#787500
1/
#790000
0/
#792000
13
#792500
1/
#795000
0/
#797500
1/
#800000
0/
03
#802500
1/
#805000
0/
#807500
1/
#808000
13
#810000
0/
#812500
1/
#815000
0/
#816000
03
#817500
1/
#820000
0/
#822500
1/
#824000
13
#825000
0/
#827500
1/
#830000
0/
#832000
03
#832500
1/
#835000
0/
#837500
1/
#840000
0/
13
#842500
1/
#845000
0/
#847500
1/
#848000
03
#850000
0/
#852500
1/
#855000
0/
#856000
13
#857500
1/
#860000
0/
#862500
1/
#864000
03
#865000
0/
#867500
1/
#870000
0/
#872000
13
#872500
1/
#875000
0/
#877500
1/
#880000
0/
03
#882500
1/
#885000
0/
#887500
1/
#888000
13
#890000
0/
#892500
1/
#895000
0/
#896000
03
#897500
1/
#900000
0/
#902500
1/
#904000
13
#905000
0/
#907500
1/
#910000
0/
#912000
03
#912500
1/
#915000
0/
#917500
1/
#920000
0/
13
#922500
1/
#925000
0/
#927500
1/
#928000
03
#930000
0/
#932500
1/
#935000
0/
#936000
13
#937500
1/
#940000
0/
#942500
1/
#944000
03
#945000
0/
#947500
1/
#950000
0/
#952000
13
#952500
1/
#955000
0/
#957500
1/
#960000
0/
03
#962500
1/
#965000
0/
#967500
1/
#968000
13
#970000
0/
#972500
1/
#975000
0/
#976000
03
#977500
1/
#980000
0/
#982500
1/
#984000
13
#985000
0/
#987500
1/
#990000
0/
#992000
03
#992500
1/
#995000
0/
#997500
1/
#1000000
0/
13
#1002500
1/
#1005000
0/
#1007500
1/
#1008000
03
#1010000
0/
#1012500
1/
#1015000
0/
#1016000
00
0&
1_
b100100 !"
b11000000000 Z
b11000000000 `
b11000000000 b
b0 +
b0 <
b0 Y
b0 ^
0.
02
13
#1017500
1i
1j
b10 X
1/
#1020000
0/
#1022500
b11 X
1'
1k
1/
#1024000
1&
b11001001000 Z
b11001001000 `
b11001001000 b
b100100 +
b100100 <
b100100 Y
b100100 ^
12
03
#1025000
0/
#1027500
b100 X
1/
#1030000
0/
#1032000
0_
1g
b11001001000 e
b11001001000 f
b10 ]
b10010001010 Z
b10010001010 `
b10010001010 b
b1000101 +
b1000101 <
b1000101 Y
b1000101 ^
02
b0 &"
b1111 %"
b1000101 ""
13
#1032500
1!
1C
b1 X
1/
#1035000
0/
#1037500
0!
0C
b10 X
1/
#1040000
0/
03
#1042500
b11 X
1/
#1045000
0/
#1047500
b100 X
1/
#1048000
b11 ]
13
#1050000
0/
#1052500
1!
1C
b1 X
1/
#1055000
0/
#1056000
03
#1057500
0!
0C
b10 X
1/
#1060000
0/
#1062500
b11 X
1/
#1064000
b100 ]
13
#1065000
0/
#1067500
b100 X
1/
#1070000
0/
#1072000
03
#1072500
1!
1C
b1 X
1/
#1075000
0/
#1077500
0!
0C
b10 X
1/
#1080000
b101 ]
0/
13
#1082500
b11 X
1/
#1085000
0/
#1087500
b100 X
1/
#1088000
03
#1090000
0/
#1092500
1!
1C
b1 X
1/
#1095000
0/
#1096000
b110 ]
13
#1097500
0!
0C
b10 X
1/
#1100000
0/
#1102500
b11 X
1/
#1104000
03
#1105000
0/
#1107500
b100 X
1/
#1110000
0/
#1112000
b111 ]
13
#1112500
1!
1C
b1 X
1/
#1115000
0/
#1117500
0!
0C
b10 X
1/
#1120000
0/
03
#1122500
b11 X
1/
#1125000
0/
#1127500
b100 X
1/
#1128000
b1000 ]
13
#1130000
0/
#1132500
1!
1C
b1 X
1/
#1135000
0/
#1136000
03
#1137500
0!
0C
b10 X
1/
#1140000
0/
#1142500
b11 X
1/
#1144000
b1001 ]
13
#1145000
0/
#1147500
b100 X
1/
#1150000
0/
#1152000
03
#1152500
1!
1C
b1 X
1/
#1155000
0/
#1157500
0!
0C
b10 X
1/
#1160000
b1010 ]
0/
13
#1162500
b11 X
1/
#1165000
0/
#1167500
b100 X
1/
#1168000
03
#1170000
0/
#1172500
1!
1C
b1 X
1/
#1175000
0/
#1176000
b1011 ]
13
#1177500
0!
0C
b10 X
1/
#1180000
0/
#1182500
b11 X
1/
#1184000
03
#1185000
0/
#1187500
b100 X
1/
#1190000
0/
#1192000
b1100 ]
13
#1192500
1!
1C
b1 X
1/
#1195000
0/
#1197500
0!
0C
b10 X
1/
#1200000
0/
03
#1202500
b11 X
1/
#1205000
0/
#1207500
b100 X
1/
#1208000
b1101 ]
13
#1210000
0/
#1212500
1!
1C
b1 X
1/
#1215000
0/
#1216000
03
#1217500
0!
0C
b10 X
1/
#1220000
0/
#1222500
b11 X
1/
#1224000
b1110 ]
13
#1225000
0/
#1227500
b100 X
1/
#1230000
0/
#1232000
03
#1232500
1!
1C
b1 X
1/
#1235000
0/
#1237500
0!
0C
b10 X
1/
#1240000
b1111 ]
0/
13
#1242500
b11 X
1/
#1245000
0/
#1247500
b100 X
1/
#1248000
03
#1250000
0/
#1252500
1!
1C
b1 X
1/
#1255000
0/
#1256000
b10000 ]
13
#1257500
0!
0C
b10 X
1/
#1260000
0/
#1262500
b11 X
1/
#1264000
03
#1265000
0/
#1267500
b100 X
1/
#1270000
0/
#1272000
b1 &"
1"
1[
b1 ]
13
#1272500
1!
1C
b1 X
1/
#1275000
0/
#1277500
0!
0C
b10 X
1/
#1280000
0/
03
#1282500
b11 X
1/
#1285000
0/
#1287500
b100 X
1/
#1288000
b1 d
b11100100100 f
0>
0h
0"
0[
b10 ]
13
#1290000
0/
#1292500
1!
1C
b1 X
0i
0j
1/
#1295000
0/
#1296000
03
#1297500
0'
0k
0!
0C
b10 X
1/
#1300000
0/
#1302500
b11 X
1/
#1304000
b11 ]
13
#1305000
0/
#1307500
b100 X
1/
#1310000
0/
#1312000
03
#1312500
1!
1C
b1 X
1/
#1315000
0/
#1317500
0!
0C
b10 X
1/
#1320000
b100 ]
0/
13
#1322500
b11 X
1/
#1325000
0/
#1327500
b100 X
1/
#1328000
03
#1330000
0/
#1332500
1!
1C
b1 X
1/
#1335000
0/
#1336000
b101 ]
13
#1337500
0!
0C
b10 X
1/
#1340000
0/
#1342500
b11 X
1/
#1344000
03
#1345000
0/
#1347500
b100 X
1/
#1350000
0/
#1352000
b110 ]
13
#1352500
1!
1C
b1 X
1/
#1355000
0/
#1357500
0!
0C
b10 X
1/
#1360000
0/
03
#1362500
b11 X
1/
#1365000
0/
#1367500
b100 X
1/
#1368000
b111 ]
13
#1370000
0/
#1372500
1!
1C
b1 X
1/
#1375000
0/
#1376000
03
#1377500
0!
0C
b10 X
1/
#1380000
0/
#1382500
b11 X
1/
#1384000
b1000 ]
13
#1385000
0/
#1387500
b100 X
1/
#1390000
0/
#1392000
03
#1392500
1!
1C
b1 X
1/
#1395000
0/
#1397500
0!
0C
b10 X
1/
#1400000
b1001 ]
0/
13
#1402500
b11 X
1/
#1405000
0/
#1407500
b100 X
1/
#1408000
03
#1410000
0/
#1412500
1!
1C
b1 X
1/
#1415000
0/
#1416000
b1010 ]
13
#1417500
0!
0C
b10 X
1/
#1420000
0/
#1422500
b11 X
1/
#1424000
03
#1425000
0/
#1427500
b100 X
1/
#1430000
0/
#1432000
b1011 ]
13
#1432500
1!
1C
b1 X
1/
#1435000
0/
#1437500
0!
0C
b10 X
1/
#1440000
0/
03
#1442500
b11 X
1/
#1445000
0/
#1447500
b100 X
1/
#1448000
b1100 ]
13
#1450000
0/
#1452500
1!
1C
b1 X
1/
#1455000
0/
#1456000
03
#1457500
0!
0C
b10 X
1/
#1460000
0/
#1462500
b11 X
1/
#1464000
b1101 ]
13
#1465000
0/
#1467500
b100 X
1/
#1470000
0/
#1472000
03
#1472500
1!
1C
b1 X
1/
#1475000
0/
#1477500
0!
0C
b10 X
1/
#1480000
b1110 ]
0/
13
#1482500
b11 X
1/
#1485000
0/
#1487500
b100 X
1/
#1488000
03
#1490000
0/
#1492500
1!
1C
b1 X
1/
#1495000
0/
#1496000
b1111 ]
13
#1497500
0!
0C
b10 X
1/
#1500000
0/
#1502500
b11 X
1/
#1504000
03
#1505000
0/
#1507500
b100 X
1/
#1510000
0/
#1512000
b10000 ]
13
#1512500
1!
1C
b1 X
1/
#1515000
0/
#1517500
0!
0C
b10 X
1/
#1520000
0/
03
#1522500
b11 X
1/
#1525000
0/
#1527500
b100 X
1/
#1528000
b10 &"
1"
1[
b1 ]
13
#1530000
0/
#1532500
1!
1C
b1 X
1/
#1535000
0/
#1536000
03
#1537500
0!
0C
b10 X
1/
#1540000
0/
#1542500
b11 X
1/
#1544000
b10 d
b11110010010 f
0"
0[
b10 ]
13
#1545000
0/
#1547500
b100 X
1/
#1550000
0/
#1552000
03
#1552500
1!
1C
b1 X
1/
#1555000
0/
#1557500
0!
0C
b10 X
1/
#1560000
b11 ]
0/
13
#1562500
b11 X
1/
#1565000
0/
#1567500
b100 X
1/
#1568000
03
#1570000
0/
#1572500
1!
1C
b1 X
1/
#1575000
0/
#1576000
b100 ]
13
#1577500
0!
0C
b10 X
1/
#1580000
0/
#1582500
b11 X
1/
#1584000
03
#1585000
0/
#1587500
b100 X
1/
#1590000
0/
#1592000
b101 ]
13
#1592500
1!
1C
b1 X
1/
#1595000
0/
#1597500
0!
0C
b10 X
1/
#1600000
0/
03
#1602500
b11 X
1/
#1605000
0/
#1607500
b100 X
1/
#1608000
b110 ]
13
#1610000
0/
#1612500
1!
1C
b1 X
1/
#1615000
0/
#1616000
03
#1617500
0!
0C
b10 X
1/
#1620000
0/
#1622500
b11 X
1/
#1624000
b111 ]
13
#1625000
0/
#1627500
b100 X
1/
#1630000
0/
#1632000
03
#1632500
1!
1C
b1 X
1/
#1635000
0/
#1637500
0!
0C
b10 X
1/
#1640000
b1000 ]
0/
13
#1642500
b11 X
1/
#1645000
0/
#1647500
b100 X
1/
#1648000
03
#1650000
0/
#1652500
1!
1C
b1 X
1/
#1655000
0/
#1656000
b1001 ]
13
#1657500
0!
0C
b10 X
1/
#1660000
0/
#1662500
b11 X
1/
#1664000
03
#1665000
0/
#1667500
b100 X
1/
#1670000
0/
#1672000
b1010 ]
13
#1672500
1!
1C
b1 X
1/
#1675000
0/
#1677500
0!
0C
b10 X
1/
#1680000
0/
03
#1682500
b11 X
1/
#1685000
0/
#1687500
b100 X
1/
#1688000
b1011 ]
13
#1690000
0/
#1692500
1!
1C
b1 X
1/
#1695000
0/
#1696000
03
#1697500
0!
0C
b10 X
1/
#1700000
0/
#1702500
b11 X
1/
#1704000
b1100 ]
13
#1705000
0/
#1707500
b100 X
1/
#1710000
0/
#1712000
03
#1712500
1!
1C
b1 X
1/
#1715000
0/
#1717500
0!
0C
b10 X
1/
#1720000
b1101 ]
0/
13
#1722500
b11 X
1/
#1725000
0/
#1727500
b100 X
1/
#1728000
03
#1730000
0/
#1732500
1!
1C
b1 X
1/
#1735000
0/
#1736000
b1110 ]
13
#1737500
0!
0C
b10 X
1/
#1740000
0/
#1742500
b11 X
1/
#1744000
03
#1745000
0/
#1747500
b100 X
1/
#1750000
0/
#1752000
b1111 ]
13
#1752500
1!
1C
b1 X
1/
#1755000
0/
#1757500
0!
0C
b10 X
1/
#1760000
0/
03
#1762500
b11 X
1/
#1765000
0/
#1767500
b100 X
1/
#1768000
b10000 ]
13
#1770000
0/
#1772500
1!
1C
b1 X
1/
#1775000
0/
#1776000
03
#1777500
0!
0C
b10 X
1/
#1780000
0/
#1782500
b11 X
1/
#1784000
b11 &"
1"
1[
b1 ]
13
#1785000
0/
#1787500
b100 X
1/
#1790000
0/
#1792000
03
#1792500
1!
1C
b1 X
1/
#1795000
0/
#1797500
0!
0C
b10 X
1/
#1800000
b11 d
b11111001001 f
0"
0[
b10 ]
0/
13
#1802500
b11 X
1/
#1805000
0/
#1807500
b100 X
1/
#1808000
03
#1810000
0/
#1812500
1!
1C
b1 X
1/
#1815000
0/
#1816000
b11 ]
13
#1817500
0!
0C
b10 X
1/
#1820000
0/
#1822500
b11 X
1/
#1824000
03
#1825000
0/
#1827500
b100 X
1/
#1830000
0/
#1832000
b100 ]
13
#1832500
1!
1C
b1 X
1/
#1835000
0/
#1837500
0!
0C
b10 X
1/
#1840000
0/
03
#1842500
b11 X
1/
#1845000
0/
#1847500
b100 X
1/
#1848000
b101 ]
13
#1850000
0/
#1852500
1!
1C
b1 X
1/
#1855000
0/
#1856000
03
#1857500
0!
0C
b10 X
1/
#1860000
0/
#1862500
b11 X
1/
#1864000
b110 ]
13
#1865000
0/
#1867500
b100 X
1/
#1870000
0/
#1872000
03
#1872500
1!
1C
b1 X
1/
#1875000
0/
#1877500
0!
0C
b10 X
1/
#1880000
b111 ]
0/
13
#1882500
b11 X
1/
#1885000
0/
#1887500
b100 X
1/
#1888000
03
#1890000
0/
#1892500
1!
1C
b1 X
1/
#1895000
0/
#1896000
b1000 ]
13
#1897500
0!
0C
b10 X
1/
#1900000
0/
#1902500
b11 X
1/
#1904000
03
#1905000
0/
#1907500
b100 X
1/
#1910000
0/
#1912000
b1001 ]
13
#1912500
1!
1C
b1 X
1/
#1915000
0/
#1917500
0!
0C
b10 X
1/
#1920000
0/
03
#1922500
b11 X
1/
#1925000
0/
#1927500
b100 X
1/
#1928000
b1010 ]
13
#1930000
0/
#1932500
1!
1C
b1 X
1/
#1935000
0/
#1936000
03
#1937500
0!
0C
b10 X
1/
#1940000
0/
#1942500
b11 X
1/
#1944000
b1011 ]
13
#1945000
0/
#1947500
b100 X
1/
#1950000
0/
#1952000
03
#1952500
1!
1C
b1 X
1/
#1955000
0/
#1957500
0!
0C
b10 X
1/
#1960000
b1100 ]
0/
13
#1962500
b11 X
1/
#1965000
0/
#1967500
b100 X
1/
#1968000
03
#1970000
0/
#1972500
1!
1C
b1 X
1/
#1975000
0/
#1976000
b1101 ]
13
#1977500
0!
0C
b10 X
1/
#1980000
0/
#1982500
b11 X
1/
#1984000
03
#1985000
0/
#1987500
b100 X
1/
#1990000
0/
#1992000
b1110 ]
13
#1992500
1!
1C
b1 X
1/
#1995000
0/
#1997500
0!
0C
b10 X
1/
#2000000
0/
03
#2002500
b11 X
1/
#2005000
0/
#2007500
b100 X
1/
#2008000
b1111 ]
13
#2010000
0/
#2012500
1!
1C
b1 X
1/
#2015000
0/
#2016000
03
#2017500
0!
0C
b10 X
1/
#2020000
0/
#2022500
b11 X
1/
#2024000
b10000 ]
13
#2025000
0/
#2027500
b100 X
1/
#2030000
0/
#2032000
03
#2032500
1!
1C
b1 X
1/
#2035000
0/
#2037500
0!
0C
b10 X
1/
#2040000
b100 &"
1"
1[
b1 ]
0/
13
#2042500
b11 X
1/
#2045000
0/
#2047500
b100 X
1/
#2048000
03
#2050000
0/
#2052500
1!
1C
b1 X
1/
#2055000
0/
#2056000
b100 d
b11111100100 f
1>
1h
0"
0[
b10 ]
13
#2057500
1i
1j
0!
0C
b10 X
1/
#2060000
0/
#2062500
b11 X
1'
1k
1/
#2064000
03
#2065000
0/
#2067500
b100 X
1/
#2070000
0/
#2072000
b11 ]
13
#2072500
1!
1C
b1 X
1/
#2075000
0/
#2077500
0!
0C
b10 X
1/
#2080000
0/
03
#2082500
b11 X
1/
#2085000
0/
#2087500
b100 X
1/
#2088000
b100 ]
13
#2090000
0/
#2092500
1!
1C
b1 X
1/
#2095000
0/
#2096000
03
#2097500
0!
0C
b10 X
1/
#2100000
0/
#2102500
b11 X
1/
#2104000
b101 ]
13
#2105000
0/
#2107500
b100 X
1/
#2110000
0/
#2112000
03
#2112500
1!
1C
b1 X
1/
#2115000
0/
#2117500
0!
0C
b10 X
1/
#2120000
b110 ]
0/
13
#2122500
b11 X
1/
#2125000
0/
#2127500
b100 X
1/
#2128000
03
#2130000
0/
#2132500
1!
1C
b1 X
1/
#2135000
0/
#2136000
b111 ]
13
#2137500
0!
0C
b10 X
1/
#2140000
0/
#2142500
b11 X
1/
#2144000
03
#2145000
0/
#2147500
b100 X
1/
#2150000
0/
#2152000
b1000 ]
13
#2152500
1!
1C
b1 X
1/
#2155000
0/
#2157500
0!
0C
b10 X
1/
#2160000
0/
03
#2162500
b11 X
1/
#2165000
0/
#2167500
b100 X
1/
#2168000
b1001 ]
13
#2170000
0/
#2172500
1!
1C
b1 X
1/
#2175000
0/
#2176000
03
#2177500
0!
0C
b10 X
1/
#2180000
0/
#2182500
b11 X
1/
#2184000
b1010 ]
13
#2185000
0/
#2187500
b100 X
1/
#2190000
0/
#2192000
03
#2192500
1!
1C
b1 X
1/
#2195000
0/
#2197500
0!
0C
b10 X
1/
#2200000
b1011 ]
0/
13
#2202500
b11 X
1/
#2205000
0/
#2207500
b100 X
1/
#2208000
03
#2210000
0/
#2212500
1!
1C
b1 X
1/
#2215000
0/
#2216000
b1100 ]
13
#2217500
0!
0C
b10 X
1/
#2220000
0/
#2222500
b11 X
1/
#2224000
03
#2225000
0/
#2227500
b100 X
1/
#2230000
0/
#2232000
b1101 ]
13
#2232500
1!
1C
b1 X
1/
#2235000
0/
#2237500
0!
0C
b10 X
1/
#2240000
0/
03
#2242500
b11 X
1/
#2245000
0/
#2247500
b100 X
1/
#2248000
b1110 ]
13
#2250000
0/
#2252500
1!
1C
b1 X
1/
#2255000
0/
#2256000
03
#2257500
0!
0C
b10 X
1/
#2260000
0/
#2262500
b11 X
1/
#2264000
b1111 ]
13
#2265000
0/
#2267500
b100 X
1/
#2270000
0/
#2272000
03
#2272500
1!
1C
b1 X
1/
#2275000
0/
